{
  "images" : [
    {
      "filename" : "53f651cf059b470929e41306a626d1ae_f568.png",
      "idiom" : "universal",
      "scale" : "1x"
    },
    {
      "filename" : "53f651cf059b470929e41306a626d1ae_f568@2x.png",
      "idiom" : "universal",
      "scale" : "2x"
    },
    {
      "idiom" : "universal",
      "scale" : "3x"
    }
  ],
  "info" : {
    "author" : "xcode",
    "version" : 1
  }
}
